…
> filter(df, is.na(winner))
# A tibble: 1 × 17
     id season city  date       team1  team2 toss_…¹ toss_…²
  <dbl> <chr>  <chr> <date>     <chr>  <chr> <chr>   <chr>  
1   242 2011   Delhi 2011-05-21 Delhi… Pune… Delhi … bat    
# … with 9 more variables: result <chr>, dl_applied <dbl>,
#   winner <chr>, win_by_runs <dbl>, win_by_wickets <dbl>,
#   player_of_match <chr>, venue <chr>, umpire1 <chr>,
#   umpire2 <chr>, and abbreviated variable names
#   ¹​toss_winner, ²​toss_decision
# ℹ Use `colnames()` to see all variable names
> df%>%group_by(winner,city)%>%summarise(win = n())%>%arrange(desc(win))
`summarise()` has grouped output by 'winner'. You can
override using the `.groups` argument.
# A tibble: 113 × 3
# Groups:   winner [11]
   winner                      city         win
   <chr>                       <chr>      <int>
 1 Mumbai Indians              Mumbai        18
 2 Chennai Super Kings         Chennai       15
 3 Kolkata Knight Riders       Kolkata       13
 4 Rajasthan Royals            Jaipur        12
 5 Kings XI Punjab             Chandigarh    10
 6 Royal Challengers Bangalore Bangalore     10
 7 Delhi Daredevils            Delhi          8
 8 Chennai Super Kings         Mumbai         5
 9 Deccan Chargers             Mumbai         3
10 Delhi Daredevils            Durban         3
# … with 103 more rows
# ℹ Use `print(n = ...)` to see more rows
…
Run `rlang::last_error()` to see where the error occurred.
> df%>%filter(result == "wickets"&result == 10)%>%group_by(winner)%>%summarise(win=n())%>%arrange(desc(win))
# A tibble: 0 × 2
# … with 2 variables: winner <chr>, win <int>
# ℹ Use `colnames()` to see all variable names
> df%>%filter(result == "runs"&result == 1)%>%group_by(winner)%>%summarise(win=n())%>%arrange(desc(win))
# A tibble: 0 × 2
# … with 2 variables: winner <chr>, win <int>
# ℹ Use `colnames()` to see all variable names
> df%>%filter(result == "wickets"&result == 1)%>%group_by(winner)%>%summarise(win=n())%>%arrange(desc(win))
# A tibble: 0 × 2
# … with 2 variables: winner <chr>, win <int>
# ℹ Use `colnames()` to see all variable names
> df%>%group_by(player_of_match)%>%summarise(Total=n())%>%arrange(desc(Total))
# A tibble: 117 × 2
   player_of_match  Total
   <chr>            <int>
 1 YK Pathan           11
 2 CH Gayle             7
 3 SR Tendulkar         7
 4 JH Kallis            6
 5 MS Dhoni             6
 6 SE Marsh             6
 7 V Sehwag             6
 8 AC Gilchrist         5
 9 DPMD Jayawardene     5
10 SK Raina             5
# … with 107 more rows
# ℹ Use `print(n = ...)` to see more rows
